<?xml version="1.0" encoding="utf-8"?>
<!-- Generator: Adobe Illustrator 19.1.0, SVG Export Plug-In . SVG Version: 6.00 Build 0)  -->
<svg version="1.1" id="Layer_1" xmlns="http://www.w3.org/2000/svg" xmlns:xlink="http://www.w3.org/1999/xlink" x="0px" y="0px"
	 viewBox="0 0 900 150" style="enable-background:new 0 0 900 150;" xml:space="preserve">
<style type="text/css">
	.st0{fill:#FFFFFF;}
</style>
<g>
	<path class="st0" d="M365.8,91.5c1.2,17,13.9,23.9,29.2,23.9c13.1,0,21.3-5.1,21.3-13.3s-7.2-10.2-18-12.3l-23.1-4.1
		c-19.6-3.7-33.5-14.7-33.5-35.6c0-24.3,19-39.4,49-39.4c33.5,0,51.7,16.6,52.3,44.1l-27.4,0.8c-0.8-14.5-10.8-21.5-25.1-21.5
		c-12.5,0-19.6,5.1-19.6,13.5c0,7,5.5,9.6,14.5,11.4l23.1,4.1c25.3,4.5,36.8,17,36.8,37.2c0,25.5-22.1,38.6-50.3,38.6
		c-32.9,0-56.4-16.3-56.4-46.2L365.8,91.5z"/>
	<path class="st0" d="M534.6,13v123.4h-29.8V13H534.6z"/>
	<path class="st0" d="M592.5,74.7c0-38,27.6-64,62.9-64c35.8,0,56.8,19.6,59.5,50.7l-29,1c-1.6-15.5-12.1-25.5-30-25.5
		c-20.6,0-32.9,14.9-32.9,37.8c0,23.5,12.7,39,35.2,39c13.5,0,25.1-6.9,29.4-19h-29.6V73.1h57.6v63.3h-26v-15.5
		c-6.7,12.3-20.8,17.8-37.2,17.8C618.2,138.7,592.5,112.8,592.5,74.7z"/>
	<path class="st0" d="M859.1,87V13h27.2v123.4h-23.7l-57.2-78.7v78.7H778V13h28.6L859.1,87z"/>
</g>
</svg>
