<?xml version="1.0" encoding="utf-8"?>
<!-- Generator: Adobe Illustrator 19.1.0, SVG Export Plug-In . SVG Version: 6.00 Build 0)  -->
<svg version="1.1" id="Layer_1" xmlns="http://www.w3.org/2000/svg" xmlns:xlink="http://www.w3.org/1999/xlink" x="0px" y="0px"
	 viewBox="0 0 1417.3 1417.3" style="enable-background:new 0 0 1417.3 1417.3;" xml:space="preserve">
<style type="text/css">
	.st0{fill:#FFFFFF;}
	.st1{fill:#EE4023;}
</style>
<path class="st0" d="M607.4,8.7H64.6v796.9l602.9,602.9c425-22.1,685.2-280.2,685.2-699.1C1352.7,271.2,1068,8.7,607.4,8.7z
	 M585.2,1143.4H402.8V275.7h182.4c264.7,0,418.3,160.2,418.3,431.6C1003.4,983.2,849.9,1143.4,585.2,1143.4z"/>
<polygon class="st1" points="667.5,1408.6 667.5,805.6 64.6,805.6 "/>
</svg>
